SYN_TEST/SIM/work/test1.vcd
$date
	Tue Aug 28 09:02:55 2018
$end
$version
	QuestaSim Version 10.1d
$end
$timescale
	1ps
$end
$scope module tb_spike_controller_unit $end
$var wire 1 ! i_clk $end
$var wire 1 " i_rst $end
$var wire 1 # i_en $end
$var wire 1 $ i_spike_num [7] $end
$var wire 1 % i_spike_num [6] $end
$var wire 1 & i_spike_num [5] $end
$var wire 1 ' i_spike_num [4] $end
$var wire 1 ( i_spike_num [3] $end
$var wire 1 ) i_spike_num [2] $end
$var wire 1 * i_spike_num [1] $end
$var wire 1 + i_spike_num [0] $end
$var wire 1 , i_data [7] $end
$var wire 1 - i_data [6] $end
$var wire 1 . i_data [5] $end
$var wire 1 / i_data [4] $end
$var wire 1 0 i_data [3] $end
$var wire 1 1 i_data [2] $end
$var wire 1 2 i_data [1] $end
$var wire 1 3 i_data [0] $end
$var wire 1 4 o_spike_en $end
$var wire 1 5 o_leak_en $end
$var wire 1 6 TbClock $end
$var wire 1 7 TbSimEnded $end
$scope module dut $end
$var wire 1 8 i_clk $end
$var wire 1 9 i_rst $end
$var wire 1 : i_en $end
$var wire 1 ; i_spike_num [7] $end
$var wire 1 < i_spike_num [6] $end
$var wire 1 = i_spike_num [5] $end
$var wire 1 > i_spike_num [4] $end
$var wire 1 ? i_spike_num [3] $end
$var wire 1 @ i_spike_num [2] $end
$var wire 1 A i_spike_num [1] $end
$var wire 1 B i_spike_num [0] $end
$var wire 1 C i_data [7] $end
$var wire 1 D i_data [6] $end
$var wire 1 E i_data [5] $end
$var wire 1 F i_data [4] $end
$var wire 1 G i_data [3] $end
$var wire 1 H i_data [2] $end
$var wire 1 I i_data [1] $end
$var wire 1 J i_data [0] $end
$var wire 1 K o_spike_en $end
$var wire 1 L o_leak_en $end
$var wire 1 M count_net [7] $end
$var wire 1 N count_net [6] $end
$var wire 1 O count_net [5] $end
$var wire 1 P count_net [4] $end
$var wire 1 Q count_net [3] $end
$var wire 1 R count_net [2] $end
$var wire 1 S count_net [1] $end
$var wire 1 T count_net [0] $end
$upscope $end
$upscope $end
$enddefinitions $end
#0
0!
08
1"
19
0#
0:
0$
0;
0%
0<
0&
0=
0'
0>
0(
0?
0)
0@
0*
0A
0+
0B
0,
0C
0-
0D
0.
0E
0/
0F
00
0G
01
0H
02
0I
03
0J
04
0K
15
1L
0M
0N
0O
0P
0Q
0R
0S
0T
06
07
15
1L
04
0K
0!
08
1"
19
0,
0C
0-
0D
0.
0E
0/
0F
00
0G
01
0H
02
0I
03
0J
0$
0;
0%
0<
0&
0=
0'
0>
0(
0?
0)
0@
0*
0A
0+
0B
0#
0:
0M
0N
0O
0P
0Q
0R
0S
0T
#50000
16
1!
18
0"
09
#100000
06
0!
08
#150000
16
1!
18
1M
1N
1O
1P
1Q
1R
1S
1T
1(
1?
1*
1A
1#
1:
05
0L
#200000
06
0!
08
#250000
16
1!
18
0M
0N
0O
0P
0R
0T
0#
0:
#300000
06
0!
08
#350000
16
1!
18
0S
1T
14
1K
#400000
06
0!
08
#450000
16
1!
18
0T
#500000
06
0!
08
#550000
16
1!
18
0Q
1R
1S
1T
#600000
06
0!
08
#650000
16
1!
18
0T
#700000
06
0!
08
#750000
16
1!
18
0S
1T
#800000
06
0!
08
#850000
16
1!
18
0T
#900000
06
0!
08
#950000
16
1!
18
0R
1S
1T
#1000000
06
0!
08
#1050000
16
1!
18
0T
#1100000
06
0!
08
#1150000
16
1!
18
0S
1T
#1200000
06
0!
08
#1250000
16
1!
18
0T
15
1L
04
0K
#1300000
06
0!
08
#1350000
16
1!
18
1M
1N
1O
1P
1Q
1R
1S
1T
05
0L
#1400000
06
0!
08
#1450000
16
1!
18
0T
#1500000
06
0!
08
#1550000
16
1!
18
0S
1T
#1600000
06
0!
08
#1650000
16
1!
18
0T
#1700000
06
0!
08
#1750000
16
1!
18
0R
1S
1T
#1800000
06
0!
08
#1850000
16
1!
18
0T
#1900000
06
0!
08
#1950000
16
1!
18
0S
1T
#2000000
06
0!
08
#2050000
16
1!
18
0T
#2100000
06
0!
08
#2150000
16
1!
18
0Q
1R
1S
1T
#2200000
06
0!
08
#2250000
16
1!
18
0T
#2300000
06
0!
08
#2350000
16
1!
18
0S
1T
#2400000
06
0!
08
#2450000
16
1!
18
0T
#2500000
06
0!
08
#2550000
16
1!
18
0R
1S
1T
#2600000
06
0!
08
#2650000
16
1!
18
0T
#2700000
06
0!
08
#2750000
16
1!
18
0S
1T
#2800000
06
0!
08
#2850000
16
1!
18
0T
#2900000
06
0!
08
#2950000
16
1!
18
0P
1Q
1R
1S
1T
#3000000
06
0!
08
#3050000
16
1!
18
0T
#3100000
06
0!
08
#3150000
16
1!
18
0S
1T
#3200000
06
0!
08
#3250000
16
1!
18
0T
#3300000
06
0!
08
#3350000
16
1!
18
0R
1S
1T
#3400000
06
0!
08
#3450000
16
1!
18
0T
#3500000
06
0!
08
#3550000
16
1!
18
0S
1T
#3600000
06
0!
08
#3650000
16
1!
18
0T
#3700000
06
0!
08
#3750000
16
1!
18
0Q
1R
1S
1T
#3800000
06
0!
08
#3850000
16
1!
18
0T
#3900000
06
0!
08
#3950000
16
1!
18
0S
1T
#4000000
06
0!
08
#4050000
16
1!
18
0T
#4100000
06
0!
08
#4150000
16
1!
18
0R
1S
1T
#4200000
06
0!
08
#4250000
16
1!
18
0T
#4300000
06
0!
08
#4350000
16
1!
18
0S
1T
#4400000
06
0!
08
#4450000
16
1!
18
0T
#4500000
06
0!
08
#4550000
16
1!
18
0O
1P
1Q
1R
1S
1T
#4600000
06
0!
08
#4650000
16
1!
18
0T
#4700000
06
0!
08
#4750000
16
1!
18
0S
1T
#4800000
06
0!
08
#4850000
16
1!
18
0T
#4900000
06
0!
08
#4950000
16
1!
18
0R
1S
1T
#5000000
06
0!
08
#5050000
16
1!
18
0T
#5100000
06
0!
08
#5150000
16
1!
18
0S
1T
#5200000
06
0!
08
#5250000
16
1!
18
0T
#5300000
06
0!
08
#5350000
16
1!
18
0Q
1R
1S
1T
#5400000
06
0!
08
#5450000
16
1!
18
0T
#5500000
06
0!
08
#5550000
16
1!
18
0S
1T
#5600000
06
0!
08
#5650000
16
1!
18
0T
#5700000
06
0!
08
#5750000
16
1!
18
0R
1S
1T
#5800000
06
0!
08
#5850000
16
1!
18
0T
#5900000
06
0!
08
#5950000
16
1!
18
0S
1T
#6000000
06
0!
08
#6050000
16
1!
18
0T
#6100000
06
0!
08
#6150000
16
1!
18
0P
1Q
1R
1S
1T
#6200000
06
0!
08
#6250000
16
1!
18
0T
#6300000
06
0!
08
#6350000
16
1!
18
0S
1T
#6400000
06
0!
08
#6450000
16
1!
18
0T
#6500000
06
0!
08
#6550000
16
1!
18
0R
1S
1T
#6600000
06
0!
08
#6650000
16
1!
18
0T
#6700000
06
0!
08
#6750000
16
1!
18
0S
1T
#6800000
06
0!
08
#6850000
16
1!
18
0T
#6900000
06
0!
08
#6950000
16
1!
18
0Q
1R
1S
1T
#7000000
06
0!
08
#7050000
16
1!
18
0T
#7100000
06
0!
08
#7150000
16
1!
18
0S
1T
#7200000
06
0!
08
#7250000
16
1!
18
0T
#7300000
06
0!
08
#7350000
16
1!
18
0R
1S
1T
#7400000
06
0!
08
#7450000
16
1!
18
0T
#7500000
06
0!
08
#7550000
16
1!
18
0S
1T
#7600000
06
0!
08
#7650000
16
1!
18
0T
#7700000
06
0!
08
#7750000
16
1!
18
0N
1O
1P
1Q
1R
1S
1T
#7800000
06
0!
08
#7850000
16
1!
18
0T
#7900000
06
0!
08
#7950000
16
1!
18
0S
1T
#8000000
06
0!
08
#8050000
16
1!
18
0T
#8100000
06
0!
08
#8150000
16
1!
18
0R
1S
1T
#8200000
06
0!
08
#8250000
16
1!
18
0T
#8300000
06
0!
08
#8350000
16
1!
18
0S
1T
#8400000
06
0!
08
#8450000
16
1!
18
0T
#8500000
06
0!
08
#8550000
16
1!
18
0Q
1R
1S
1T
#8600000
06
0!
08
#8650000
16
1!
18
0T
#8700000
06
0!
08
#8750000
16
1!
18
0S
1T
#8800000
06
0!
08
#8850000
16
1!
18
0T
#8900000
06
0!
08
#8950000
16
1!
18
0R
1S
1T
#9000000
06
0!
08
#9050000
16
1!
18
0T
#9100000
06
0!
08
#9150000
16
1!
18
0S
1T
#9200000
06
0!
08
#9250000
16
1!
18
0T
#9300000
06
0!
08
#9350000
16
1!
18
0P
1Q
1R
1S
1T
#9400000
06
0!
08
#9450000
16
1!
18
0T
#9500000
06
0!
08
#9550000
16
1!
18
0S
1T
#9600000
06
0!
08
#9650000
16
1!
18
0T
#9700000
06
0!
08
#9750000
16
1!
18
0R
1S
1T
#9800000
06
0!
08
#9850000
16
1!
18
0T
#9900000
06
0!
08
#9950000
16
1!
18
0S
1T
#10000000
06
0!
08
#10050000
16
1!
18
0T
#10100000
06
0!
08
#10150000
16
1!
18
0Q
1R
1S
1T
#10200000
06
0!
08
#10250000
06
17
0!
08
0T
